# Exported from ProBuilder
# http://www.procore3d.com/probuilder
# 2/9/2019 4:28:25 PM

mtllib ./UnderFloor.mtl
o UnderFloor

g UnderFloor
v 7 -7 52
v 6 -7 52
v 7 -1 52
v 6 -1 52
v 6 -7 52
v 6 -7 36
v 6 -1 52
v 6 -1 36
v 6 -7 36
v 7 -7 36
v 6 -1 36
v 7 -1 36
v 7 -7 36
v 7 -7 52
v 7 -1 36
v 7 -1 52
v 7 -1 52
v 6 -1 52
v 7 -1 36
v 6 -1 36
v 7 -7 36
v 6 -7 36
v 7 -7 52
v 6 -7 52
v 13 -7 52
v 12 -7 52
v 13 -1 52
v 12 -1 52
v 12 -7 52
v 12 -7 36
v 12 -1 52
v 12 -1 36
v 12 -7 36
v 13 -7 36
v 12 -1 36
v 13 -1 36
v 13 -7 36
v 13 -7 52
v 13 -1 36
v 13 -1 52
v 13 -1 52
v 12 -1 52
v 13 -1 36
v 12 -1 36
v 13 -7 36
v 12 -7 36
v 13 -7 52
v 12 -7 52
v 12 -7 52
v 7 -7 52
v 12 -6 52
v 7 -6 52
v 7 -7 52
v 7 -7 36
v 7 -6 52
v 7 -6 36
v 7 -7 36
v 12 -7 36
v 7 -6 36
v 12 -6 36
v 12 -7 36
v 12 -7 52
v 12 -6 36
v 12 -6 52
v 12 -6 52
v 7 -6 52
v 12 -6 36
v 7 -6 36
v 12 -7 36
v 7 -7 36
v 12 -7 52
v 7 -7 52
v 12 -6 48
v 7 -6 47.99997
v 12 -5.806452 48
v 7 -5.806452 47.99997
v 12 -5.806452 48
v 7 -5.806452 47.99997
v 12 -5.806452 47.74194
v 7.000002 -5.806452 47.74191
v 12 -5.806452 47.74194
v 7.000002 -5.806452 47.74191
v 12 -5.612903 47.74194
v 7.000002 -5.612903 47.74191
v 12 -5.612903 47.74194
v 7.000002 -5.612903 47.74191
v 12 -5.612903 47.48387
v 7.000003 -5.612903 47.48384
v 12 -5.612903 47.48387
v 7.000003 -5.612903 47.48384
v 12 -5.419355 47.48387
v 7.000003 -5.419355 47.48384
v 12 -5.419355 47.48387
v 7.000003 -5.419355 47.48384
v 12 -5.419355 47.22581
v 7.000005 -5.419355 47.22578
v 12 -5.419355 47.22581
v 7.000005 -5.419355 47.22578
v 12 -5.225806 47.22581
v 7.000005 -5.225806 47.22578
v 12 -5.225806 47.22581
v 7.000005 -5.225806 47.22578
v 12.00001 -5.225806 46.96774
v 7.000006 -5.225806 46.96771
v 12.00001 -5.225806 46.96774
v 7.000006 -5.225806 46.96771
v 12.00001 -5.032258 46.96774
v 7.000006 -5.032258 46.96771
v 12.00001 -5.032258 46.96774
v 7.000006 -5.032258 46.96771
v 12.00001 -5.032258 46.70968
v 7.000008 -5.032258 46.70965
v 12.00001 -5.032258 46.70968
v 7.000008 -5.032258 46.70965
v 12.00001 -4.83871 46.70968
v 7.000008 -4.83871 46.70965
v 12.00001 -4.83871 46.70968
v 7.000008 -4.83871 46.70965
v 12.00001 -4.83871 46.45161
v 7.00001 -4.83871 46.45158
v 12.00001 -4.83871 46.45161
v 7.00001 -4.83871 46.45158
v 12.00001 -4.645162 46.45161
v 7.00001 -4.645162 46.45158
v 12.00001 -4.645162 46.45161
v 7.00001 -4.645162 46.45158
v 12.00001 -4.645162 46.19355
v 7.00001 -4.645162 46.19352
v 12.00001 -4.645162 46.19355
v 7.00001 -4.645162 46.19352
v 12.00001 -4.451613 46.19355
v 7.00001 -4.451613 46.19352
v 12.00001 -4.451613 46.19355
v 7.00001 -4.451613 46.19352
v 12.00001 -4.451613 45.93549
v 7.000012 -4.451613 45.93546
v 12.00001 -4.451613 45.93549
v 7.000012 -4.451613 45.93546
v 12.00001 -4.258064 45.93549
v 7.000012 -4.258064 45.93546
v 12.00001 -4.258064 45.93549
v 7.000012 -4.258064 45.93546
v 12.00001 -4.258064 45.67742
v 7.000013 -4.258064 45.67739
v 12.00001 -4.258064 45.67742
v 7.000013 -4.258064 45.67739
v 12.00001 -4.064516 45.67742
v 7.000013 -4.064516 45.67739
v 12.00001 -4.064516 45.67742
v 7.000013 -4.064516 45.67739
v 12.00002 -4.064516 45.41936
v 7.000015 -4.064516 45.41933
v 12.00002 -4.064516 45.41936
v 7.000015 -4.064516 45.41933
v 12.00002 -3.870968 45.41936
v 7.000015 -3.870968 45.41933
v 12.00002 -3.870968 45.41936
v 7.000015 -3.870968 45.41933
v 12.00002 -3.870968 45.16129
v 7.000017 -3.870968 45.16126
v 12.00002 -3.870968 45.16129
v 7.000017 -3.870968 45.16126
v 12.00002 -3.677419 45.16129
v 7.000017 -3.677419 45.16126
v 12.00002 -3.677419 45.16129
v 7.000017 -3.677419 45.16126
v 12.00002 -3.677419 44.90322
v 7.000018 -3.677419 44.9032
v 12.00002 -3.677419 44.90322
v 7.000018 -3.677419 44.9032
v 12.00002 -3.483871 44.90322
v 7.000018 -3.483871 44.9032
v 12.00002 -3.483871 44.90322
v 7.000018 -3.483871 44.9032
v 12.00002 -3.483871 44.64516
v 7.00002 -3.483871 44.64513
v 12.00002 -3.483871 44.64516
v 7.00002 -3.483871 44.64513
v 12.00002 -3.290323 44.64516
v 7.00002 -3.290323 44.64513
v 12.00002 -3.290323 44.64516
v 7.00002 -3.290323 44.64513
v 12.00002 -3.290323 44.3871
v 7.000021 -3.290323 44.38707
v 12.00002 -3.290323 44.3871
v 7.000021 -3.290323 44.38707
v 12.00002 -3.096774 44.3871
v 7.000021 -3.096774 44.38707
v 12.00002 -3.096774 44.3871
v 7.000021 -3.096774 44.38707
v 12.00002 -3.096774 44.12903
v 7.000023 -3.096774 44.129
v 12.00002 -3.096774 44.12903
v 7.000023 -3.096774 44.129
v 12.00002 -2.903226 44.12903
v 7.000023 -2.903226 44.129
v 12.00002 -2.903226 44.12903
v 7.000023 -2.903226 44.129
v 12.00002 -2.903226 43.87097
v 7.000025 -2.903226 43.87094
v 12.00002 -2.903226 43.87097
v 7.000025 -2.903226 43.87094
v 12.00002 -2.709677 43.87097
v 7.000025 -2.709677 43.87094
v 12.00002 -2.709677 43.87097
v 7.000025 -2.709677 43.87094
v 12.00003 -2.709677 43.6129
v 7.000026 -2.709677 43.61287
v 12.00003 -2.709677 43.6129
v 7.000026 -2.709677 43.61287
v 12.00003 -2.516129 43.6129
v 7.000026 -2.516129 43.61287
v 12.00003 -2.516129 43.6129
v 7.000026 -2.516129 43.61287
v 12.00003 -2.516129 43.35484
v 7.000027 -2.516129 43.35481
v 12.00003 -2.516129 43.35484
v 7.000027 -2.516129 43.35481
v 12.00003 -2.322581 43.35484
v 7.000027 -2.322581 43.35481
v 12.00003 -2.322581 43.35484
v 7.000027 -2.322581 43.35481
v 12.00003 -2.322581 43.09678
v 7.000029 -2.322581 43.09674
v 12.00003 -2.322581 43.09678
v 7.000029 -2.322581 43.09674
v 12.00003 -2.129032 43.09678
v 7.000029 -2.129032 43.09674
v 12.00003 -2.129032 43.09678
v 7.000029 -2.129032 43.09674
v 12.00003 -2.129032 42.83871
v 7.000031 -2.129032 42.83868
v 12.00003 -2.129032 42.83871
v 7.000031 -2.129032 42.83868
v 12.00003 -1.935484 42.83871
v 7.000031 -1.935484 42.83868
v 12.00003 -1.935484 42.83871
v 7.000031 -1.935484 42.83868
v 12.00003 -1.935484 42.58064
v 7.000032 -1.935484 42.58062
v 12.00003 -1.935484 42.58064
v 7.000032 -1.935484 42.58062
v 12.00003 -1.741936 42.58064
v 7.000032 -1.741936 42.58062
v 12.00003 -1.741936 42.58064
v 7.000032 -1.741936 42.58062
v 12.00003 -1.741936 42.32258
v 7.000033 -1.741936 42.32255
v 12.00003 -1.741936 42.32258
v 7.000033 -1.741936 42.32255
v 12.00003 -1.548387 42.32258
v 7.000033 -1.548387 42.32255
v 12.00003 -1.548387 42.32258
v 7.000033 -1.548387 42.32255
v 12.00004 -1.548387 42.06451
v 7.000034 -1.548387 42.06449
v 12.00004 -1.548387 42.06451
v 7.000034 -1.548387 42.06449
v 12.00004 -1.354839 42.06451
v 7.000034 -1.354839 42.06449
v 12.00004 -1.354839 42.06451
v 7.000034 -1.354839 42.06449
v 12.00004 -1.354839 41.80645
v 7.000036 -1.354839 41.80642
v 12.00004 -1.354839 41.80645
v 7.000036 -1.354839 41.80642
v 12.00004 -1.16129 41.80645
v 7.000036 -1.16129 41.80642
v 12.00004 -1.16129 41.80645
v 7.000036 -1.16129 41.80642
v 12.00004 -1.16129 41.54839
v 7.000038 -1.16129 41.54836
v 12.00004 -1.16129 41.54839
v 7.000038 -1.16129 41.54836
v 12.00004 -0.967742 41.54839
v 7.000038 -0.967742 41.54836
v 12.00004 -0.967742 41.54839
v 7.000038 -0.967742 41.54836
v 12.00004 -0.967742 41.29032
v 7.00004 -0.967742 41.29029
v 12.00004 -0.967742 41.29032
v 7.00004 -0.967742 41.29029
v 12.00004 -0.7741938 41.29032
v 7.00004 -0.7741938 41.29029
v 12.00004 -0.7741938 41.29032
v 7.00004 -0.7741938 41.29029
v 12.00004 -0.7741938 41.03226
v 7.000041 -0.7741938 41.03223
v 12.00004 -0.7741938 41.03226
v 7.000041 -0.7741938 41.03223
v 12.00004 -0.5806456 41.03226
v 7.000041 -0.5806456 41.03223
v 12.00004 -0.5806456 41.03226
v 7.000041 -0.5806456 41.03223
v 12.00004 -0.5806456 40.77419
v 7.000042 -0.5806456 40.77416
v 12.00004 -0.5806456 40.77419
v 7.000042 -0.5806456 40.77416
v 12.00004 -0.3870969 40.77419
v 7.000042 -0.3870969 40.77416
v 12.00004 -0.3870969 40.77419
v 7.000042 -0.3870969 40.77416
v 12.00004 -0.3870969 40.51613
v 7.000044 -0.3870969 40.5161
v 12.00004 -0.3870969 40.51613
v 7.000044 -0.3870969 40.5161
v 12.00004 -0.1935487 40.51613
v 7.000044 -0.1935487 40.5161
v 12.00004 -0.1935487 40.51613
v 7.000044 -0.1935487 40.5161
v 12.00005 -0.1935487 40.25806
v 7.000046 -0.1935487 40.25803
v 12.00005 -0.1935487 40.25806
v 7.000046 -0.1935487 40.25803
v 12.00005 0 40.25806
v 7.000046 0 40.25803
v 12.00005 0 40.25806
v 7.000046 0 40.25803
v 12.00005 0 40
v 7.000048 0 39.99997
v 7 -6 47.99997
v 7.000002 -6 47.74191
v 7 -5.806452 47.99997
v 7.000002 -5.806452 47.74191
v 7.000002 -6 47.74191
v 7.000003 -6 47.48384
v 7.000002 -5.806452 47.74191
v 7.000003 -5.612903 47.48384
v 7.000002 -5.806452 47.74191
v 7.000002 -5.612903 47.74191
v 7.000003 -5.612903 47.48384
v 7.000003 -6 47.48384
v 7.000005 -6 47.22578
v 7.000003 -5.612903 47.48384
v 7.000005 -5.419355 47.22578
v 7.000003 -5.612903 47.48384
v 7.000003 -5.419355 47.48384
v 7.000005 -5.419355 47.22578
v 7.000005 -6 47.22578
v 7.000006 -6 46.96771
v 7.000005 -5.419355 47.22578
v 7.000006 -5.225806 46.96771
v 7.000005 -5.419355 47.22578
v 7.000005 -5.225806 47.22578
v 7.000006 -5.225806 46.96771
v 7.000006 -6 46.96771
v 7.000008 -6 46.70965
v 7.000006 -5.225806 46.96771
v 7.000008 -5.032258 46.70965
v 7.000006 -5.225806 46.96771
v 7.000006 -5.032258 46.96771
v 7.000008 -5.032258 46.70965
v 7.000008 -6 46.70965
v 7.00001 -6 46.45158
v 7.000008 -5.032258 46.70965
v 7.00001 -4.83871 46.45158
v 7.000008 -5.032258 46.70965
v 7.000008 -4.83871 46.70965
v 7.00001 -4.83871 46.45158
v 7.00001 -6 46.45158
v 7.00001 -6 46.19352
v 7.00001 -4.83871 46.45158
v 7.00001 -4.645161 46.19352
v 7.00001 -4.83871 46.45158
v 7.00001 -4.645161 46.45158
v 7.00001 -4.645161 46.19352
v 7.00001 -6 46.19352
v 7.000012 -6 45.93546
v 7.00001 -4.645161 46.19352
v 7.000012 -4.451613 45.93546
v 7.00001 -4.645161 46.19352
v 7.00001 -4.451613 46.19352
v 7.000012 -4.451613 45.93546
v 7.000012 -6 45.93546
v 7.000013 -6 45.67739
v 7.000012 -4.451613 45.93546
v 7.000013 -4.258064 45.67739
v 7.000012 -4.451613 45.93546
v 7.000012 -4.258064 45.93546
v 7.000013 -4.258064 45.67739
v 7.000013 -6 45.67739
v 7.000015 -6 45.41933
v 7.000013 -4.258064 45.67739
v 7.000015 -4.064516 45.41933
v 7.000013 -4.258064 45.67739
v 7.000013 -4.064516 45.67739
v 7.000015 -4.064516 45.41933
v 7.000015 -6 45.41933
v 7.000017 -6 45.16126
v 7.000015 -4.064516 45.41933
v 7.000017 -3.870968 45.16126
v 7.000015 -4.064516 45.41933
v 7.000015 -3.870968 45.41933
v 7.000017 -3.870968 45.16126
v 7.000017 -6 45.16126
v 7.000018 -6 44.9032
v 7.000017 -3.870968 45.16126
v 7.000018 -3.677419 44.9032
v 7.000017 -3.870968 45.16126
v 7.000017 -3.677419 45.16126
v 7.000018 -3.677419 44.9032
v 7.000018 -6 44.9032
v 7.00002 -6 44.64513
v 7.000018 -3.677419 44.9032
v 7.00002 -3.483871 44.64513
v 7.000018 -3.677419 44.9032
v 7.000018 -3.483871 44.9032
v 7.00002 -3.483871 44.64513
v 7.00002 -6 44.64513
v 7.000021 -6 44.38707
v 7.00002 -3.483871 44.64513
v 7.000021 -3.290323 44.38707
v 7.00002 -3.483871 44.64513
v 7.00002 -3.290323 44.64513
v 7.000021 -3.290323 44.38707
v 7.000021 -6 44.38707
v 7.000023 -6 44.129
v 7.000021 -3.290323 44.38707
v 7.000023 -3.096774 44.129
v 7.000021 -3.290323 44.38707
v 7.000021 -3.096774 44.38707
v 7.000023 -3.096774 44.129
v 7.000023 -6 44.129
v 7.000025 -6 43.87094
v 7.000023 -3.096774 44.129
v 7.000025 -2.903226 43.87094
v 7.000023 -3.096774 44.129
v 7.000023 -2.903226 44.129
v 7.000025 -2.903226 43.87094
v 7.000025 -6 43.87094
v 7.000026 -6 43.61287
v 7.000025 -2.903226 43.87094
v 7.000026 -2.709677 43.61287
v 7.000025 -2.903226 43.87094
v 7.000025 -2.709677 43.87094
v 7.000026 -2.709677 43.61287
v 7.000026 -6 43.61287
v 7.000027 -6 43.35481
v 7.000026 -2.709677 43.61287
v 7.000027 -2.516129 43.35481
v 7.000026 -2.709677 43.61287
v 7.000026 -2.516129 43.61287
v 7.000027 -2.516129 43.35481
v 7.000027 -6 43.35481
v 7.000029 -6 43.09674
v 7.000027 -2.516129 43.35481
v 7.000029 -2.322581 43.09674
v 7.000027 -2.516129 43.35481
v 7.000027 -2.322581 43.35481
v 7.000029 -2.322581 43.09674
v 7.000029 -6 43.09674
v 7.000031 -6 42.83868
v 7.000029 -2.322581 43.09674
v 7.000031 -2.129032 42.83868
v 7.000029 -2.322581 43.09674
v 7.000029 -2.129032 43.09674
v 7.000031 -2.129032 42.83868
v 7.000031 -6 42.83868
v 7.000032 -6 42.58062
v 7.000031 -2.129032 42.83868
v 7.000032 -1.935484 42.58062
v 7.000031 -2.129032 42.83868
v 7.000031 -1.935484 42.83868
v 7.000032 -1.935484 42.58062
v 7.000032 -6 42.58062
v 7.000033 -6 42.32255
v 7.000032 -1.935484 42.58062
v 7.000033 -1.741935 42.32255
v 7.000032 -1.935484 42.58062
v 7.000032 -1.741935 42.58062
v 7.000033 -1.741935 42.32255
v 7.000033 -6 42.32255
v 7.000034 -6 42.06449
v 7.000033 -1.741935 42.32255
v 7.000034 -1.548387 42.06449
v 7.000033 -1.741935 42.32255
v 7.000033 -1.548387 42.32255
v 7.000034 -1.548387 42.06449
v 7.000034 -6 42.06449
v 7.000036 -6 41.80642
v 7.000034 -1.548387 42.06449
v 7.000036 -1.354839 41.80642
v 7.000034 -1.548387 42.06449
v 7.000034 -1.354839 42.06449
v 7.000036 -1.354839 41.80642
v 7.000036 -6 41.80642
v 7.000038 -6 41.54836
v 7.000036 -1.354839 41.80642
v 7.000038 -1.16129 41.54836
v 7.000036 -1.354839 41.80642
v 7.000036 -1.16129 41.80642
v 7.000038 -1.16129 41.54836
v 7.000038 -6 41.54836
v 7.00004 -6 41.29029
v 7.000038 -1.16129 41.54836
v 7.00004 -0.967742 41.29029
v 7.000038 -1.16129 41.54836
v 7.000038 -0.967742 41.54836
v 7.00004 -0.967742 41.29029
v 7.00004 -6 41.29029
v 7.000041 -6 41.03223
v 7.00004 -0.967742 41.29029
v 7.000041 -0.7741938 41.03223
v 7.00004 -0.967742 41.29029
v 7.00004 -0.7741938 41.29029
v 7.000041 -0.7741938 41.03223
v 7.000041 -6 41.03223
v 7.000042 -6 40.77416
v 7.000041 -0.7741938 41.03223
v 7.000042 -0.5806451 40.77416
v 7.000041 -0.7741938 41.03223
v 7.000041 -0.5806451 41.03223
v 7.000042 -0.5806451 40.77416
v 7.000042 -6 40.77416
v 7.000044 -6 40.5161
v 7.000042 -0.5806451 40.77416
v 7.000044 -0.3870969 40.5161
v 7.000042 -0.5806451 40.77416
v 7.000042 -0.3870969 40.77416
v 7.000044 -0.3870969 40.5161
v 7.000044 -6 40.5161
v 7.000046 -6 40.25803
v 7.000044 -0.3870969 40.5161
v 7.000046 -0.1935482 40.25803
v 7.000044 -0.3870969 40.5161
v 7.000044 -0.1935482 40.5161
v 7.000046 -0.1935482 40.25803
v 7.000046 -6 40.25803
v 7.000048 -6 39.99997
v 7.000046 -0.1935482 40.25803
v 7.000048 0 39.99997
v 7.000046 -0.1935482 40.25803
v 7.000046 0 40.25803
v 7.000048 0 39.99997
v 12 -6 48
v 12 -6 47.74194
v 12 -5.806452 48
v 12 -5.806452 47.74194
v 12 -6 47.74194
v 12 -6 47.48387
v 12 -5.806452 47.74194
v 12 -5.612903 47.48387
v 12 -5.806452 47.74194
v 12 -5.612903 47.74194
v 12 -5.612903 47.48387
v 12 -6 47.48387
v 12 -6 47.22581
v 12 -5.612903 47.48387
v 12 -5.419355 47.22581
v 12 -5.612903 47.48387
v 12 -5.419355 47.48387
v 12 -5.419355 47.22581
v 12 -6 47.22581
v 12.00001 -6 46.96774
v 12 -5.419355 47.22581
v 12.00001 -5.225806 46.96774
v 12 -5.419355 47.22581
v 12 -5.225806 47.22581
v 12.00001 -5.225806 46.96774
v 12.00001 -6 46.96774
v 12.00001 -6 46.70968
v 12.00001 -5.225806 46.96774
v 12.00001 -5.032258 46.70968
v 12.00001 -5.225806 46.96774
v 12.00001 -5.032258 46.96774
v 12.00001 -5.032258 46.70968
v 12.00001 -6 46.70968
v 12.00001 -6 46.45161
v 12.00001 -5.032258 46.70968
v 12.00001 -4.83871 46.45161
v 12.00001 -5.032258 46.70968
v 12.00001 -4.83871 46.70968
v 12.00001 -4.83871 46.45161
v 12.00001 -6 46.45161
v 12.00001 -6 46.19355
v 12.00001 -4.83871 46.45161
v 12.00001 -4.645161 46.19355
v 12.00001 -4.83871 46.45161
v 12.00001 -4.645161 46.45161
v 12.00001 -4.645161 46.19355
v 12.00001 -6 46.19355
v 12.00001 -6 45.93549
v 12.00001 -4.645161 46.19355
v 12.00001 -4.451613 45.93549
v 12.00001 -4.645161 46.19355
v 12.00001 -4.451613 46.19355
v 12.00001 -4.451613 45.93549
v 12.00001 -6 45.93549
v 12.00001 -6 45.67742
v 12.00001 -4.451613 45.93549
v 12.00001 -4.258064 45.67742
v 12.00001 -4.451613 45.93549
v 12.00001 -4.258064 45.93549
v 12.00001 -4.258064 45.67742
v 12.00001 -6 45.67742
v 12.00002 -6 45.41936
v 12.00001 -4.258064 45.67742
v 12.00002 -4.064516 45.41936
v 12.00001 -4.258064 45.67742
v 12.00001 -4.064516 45.67742
v 12.00002 -4.064516 45.41936
v 12.00002 -6 45.41936
v 12.00002 -6 45.16129
v 12.00002 -4.064516 45.41936
v 12.00002 -3.870968 45.16129
v 12.00002 -4.064516 45.41936
v 12.00002 -3.870968 45.41936
v 12.00002 -3.870968 45.16129
v 12.00002 -6 45.16129
v 12.00002 -6 44.90322
v 12.00002 -3.870968 45.16129
v 12.00002 -3.677419 44.90322
v 12.00002 -3.870968 45.16129
v 12.00002 -3.677419 45.16129
v 12.00002 -3.677419 44.90322
v 12.00002 -6 44.90322
v 12.00002 -6 44.64516
v 12.00002 -3.677419 44.90322
v 12.00002 -3.483871 44.64516
v 12.00002 -3.677419 44.90322
v 12.00002 -3.483871 44.90322
v 12.00002 -3.483871 44.64516
v 12.00002 -6 44.64516
v 12.00002 -6 44.3871
v 12.00002 -3.483871 44.64516
v 12.00002 -3.290323 44.3871
v 12.00002 -3.483871 44.64516
v 12.00002 -3.290323 44.64516
v 12.00002 -3.290323 44.3871
v 12.00002 -6 44.3871
v 12.00002 -6 44.12903
v 12.00002 -3.290323 44.3871
v 12.00002 -3.096774 44.12903
v 12.00002 -3.290323 44.3871
v 12.00002 -3.096774 44.3871
v 12.00002 -3.096774 44.12903
v 12.00002 -6 44.12903
v 12.00002 -6 43.87097
v 12.00002 -3.096774 44.12903
v 12.00002 -2.903226 43.87097
v 12.00002 -3.096774 44.12903
v 12.00002 -2.903226 44.12903
v 12.00002 -2.903226 43.87097
v 12.00002 -6 43.87097
v 12.00003 -6 43.6129
v 12.00002 -2.903226 43.87097
v 12.00003 -2.709677 43.6129
v 12.00002 -2.903226 43.87097
v 12.00002 -2.709677 43.87097
v 12.00003 -2.709677 43.6129
v 12.00003 -6 43.6129
v 12.00003 -6 43.35484
v 12.00003 -2.709677 43.6129
v 12.00003 -2.516129 43.35484
v 12.00003 -2.709677 43.6129
v 12.00003 -2.516129 43.6129
v 12.00003 -2.516129 43.35484
v 12.00003 -6 43.35484
v 12.00003 -6 43.09678
v 12.00003 -2.516129 43.35484
v 12.00003 -2.322581 43.09678
v 12.00003 -2.516129 43.35484
v 12.00003 -2.322581 43.35484
v 12.00003 -2.322581 43.09678
v 12.00003 -6 43.09678
v 12.00003 -6 42.83871
v 12.00003 -2.322581 43.09678
v 12.00003 -2.129032 42.83871
v 12.00003 -2.322581 43.09678
v 12.00003 -2.129032 43.09678
v 12.00003 -2.129032 42.83871
v 12.00003 -6 42.83871
v 12.00003 -6 42.58064
v 12.00003 -2.129032 42.83871
v 12.00003 -1.935484 42.58064
v 12.00003 -2.129032 42.83871
v 12.00003 -1.935484 42.83871
v 12.00003 -1.935484 42.58064
v 12.00003 -6 42.58064
v 12.00003 -6 42.32258
v 12.00003 -1.935484 42.58064
v 12.00003 -1.741935 42.32258
v 12.00003 -1.935484 42.58064
v 12.00003 -1.741935 42.58064
v 12.00003 -1.741935 42.32258
v 12.00003 -6 42.32258
v 12.00004 -6 42.06451
v 12.00003 -1.741935 42.32258
v 12.00004 -1.548387 42.06451
v 12.00003 -1.741935 42.32258
v 12.00003 -1.548387 42.32258
v 12.00004 -1.548387 42.06451
v 12.00004 -6 42.06451
v 12.00004 -6 41.80645
v 12.00004 -1.548387 42.06451
v 12.00004 -1.354839 41.80645
v 12.00004 -1.548387 42.06451
v 12.00004 -1.354839 42.06451
v 12.00004 -1.354839 41.80645
v 12.00004 -6 41.80645
v 12.00004 -6 41.54839
v 12.00004 -1.354839 41.80645
v 12.00004 -1.16129 41.54839
v 12.00004 -1.354839 41.80645
v 12.00004 -1.16129 41.80645
v 12.00004 -1.16129 41.54839
v 12.00004 -6 41.54839
v 12.00004 -6 41.29032
v 12.00004 -1.16129 41.54839
v 12.00004 -0.967742 41.29032
v 12.00004 -1.16129 41.54839
v 12.00004 -0.967742 41.54839
v 12.00004 -0.967742 41.29032
v 12.00004 -6 41.29032
v 12.00004 -6 41.03226
v 12.00004 -0.967742 41.29032
v 12.00004 -0.7741938 41.03226
v 12.00004 -0.967742 41.29032
v 12.00004 -0.7741938 41.29032
v 12.00004 -0.7741938 41.03226
v 12.00004 -6 41.03226
v 12.00004 -6 40.77419
v 12.00004 -0.7741938 41.03226
v 12.00004 -0.5806451 40.77419
v 12.00004 -0.7741938 41.03226
v 12.00004 -0.5806451 41.03226
v 12.00004 -0.5806451 40.77419
v 12.00004 -6 40.77419
v 12.00004 -6 40.51613
v 12.00004 -0.5806451 40.77419
v 12.00004 -0.3870969 40.51613
v 12.00004 -0.5806451 40.77419
v 12.00004 -0.3870969 40.77419
v 12.00004 -0.3870969 40.51613
v 12.00004 -6 40.51613
v 12.00005 -6 40.25806
v 12.00004 -0.3870969 40.51613
v 12.00005 -0.1935482 40.25806
v 12.00004 -0.3870969 40.51613
v 12.00004 -0.1935482 40.51613
v 12.00005 -0.1935482 40.25806
v 12.00005 -6 40.25806
v 12.00005 -6 40
v 12.00005 -0.1935482 40.25806
v 12.00005 0 40
v 12.00005 -0.1935482 40.25806
v 12.00005 0 40.25806
v 12.00005 0 40
v 7.000048 -6 39.99997
v 12.00005 -6 40
v 7.000048 0 39.99997
v 12.00005 0 40
v 12 -6 40
v 7 -6 40
v 12 -1 40
v 7 -1 40
v 7 -6 40
v 7 -6 36
v 7 -1 40
v 7 -1 36
v 7 -6 36
v 12 -6 36
v 7 -1 36
v 12 -1 36
v 12 -6 36
v 12 -6 40
v 12 -1 36
v 12 -1 40
v 12 -1 40
v 7 -1 40
v 12 -1 36
v 7 -1 36
v 12 -6 36
v 7 -6 36
v 12 -6 40
v 7 -6 40

vn 0 0 1
vn 0 0 1
vn 0 0 1
vn 0 0 1
vn -1 0 0
vn -1 0 0
vn -1 0 0
vn -1 0 0
vn 0 0 -1
vn 0 0 -1
vn 0 0 -1
vn 0 0 -1
vn 1 0 0
vn 1 0 0
vn 1 0 0
vn 1 0 0
vn 0 1 0
vn 0 1 0
vn 0 1 0
vn 0 1 0
vn 0 -1 0
vn 0 -1 0
vn 0 -1 0
vn 0 -1 0
vn 0 0 1
vn 0 0 1
vn 0 0 1
vn 0 0 1
vn -1 0 0
vn -1 0 0
vn -1 0 0
vn -1 0 0
vn 0 0 -1
vn 0 0 -1
vn 0 0 -1
vn 0 0 -1
vn 1 0 0
vn 1 0 0
vn 1 0 0
vn 1 0 0
vn 0 1 0
vn 0 1 0
vn 0 1 0
vn 0 1 0
vn 0 -1 0
vn 0 -1 0
vn 0 -1 0
vn 0 -1 0
vn 0 0 1
vn 0 0 1
vn 0 0 1
vn 0 0 1
vn -1 0 0
vn -1 0 0
vn -1 0 0
vn -1 0 0
vn 0 0 -1
vn 0 0 -1
vn 0 0 -1
vn 0 0 -1
vn 1 0 0
vn 1 0 0
vn 1 0 0
vn 1 0 0
vn 0 1 0
vn 0 1 0
vn 0 1 0
vn 0 1 0
vn 0 -1 0
vn 0 -1 0
vn 0 -1 0
vn 0 -1 0
vn -6.103516E-06 0 1
vn -6.103516E-06 0 1
vn -6.103516E-06 0 1
vn -6.103516E-06 0 1
vn 0 1 0
vn 0 1 0
vn 0 1 0
vn 0 1 0
vn -6.103516E-06 0 1
vn -6.103516E-06 0 1
vn -6.103516E-06 0 1
vn -6.103516E-06 0 1
vn 0 1 0
vn 0 1 0
vn 0 1 0
vn 0 1 0
vn -6.103516E-06 0 1
vn -6.103516E-06 0 1
vn -6.103516E-06 0 1
vn -6.103516E-06 0 1
vn 0 1 0
vn 0 1 0
vn 0 1 0
vn 0 1 0
vn -6.103516E-06 0 1
vn -6.103516E-06 0 1
vn -6.103516E-06 0 1
vn -6.103516E-06 0 1
vn 0 1 0
vn 0 1 0
vn 0 1 0
vn 0 1 0
vn -6.103516E-06 0 1
vn -6.103516E-06 0 1
vn -6.103516E-06 0 1
vn -6.103516E-06 0 1
vn 0 1 0
vn 0 1 0
vn 0 1 0
vn 0 1 0
vn -6.103516E-06 0 1
vn -6.103516E-06 0 1
vn -6.103516E-06 0 1
vn -6.103516E-06 0 1
vn 0 1 0
vn 0 1 0
vn 0 1 0
vn 0 1 0
vn -6.103516E-06 0 1
vn -6.103516E-06 0 1
vn -6.103516E-06 0 1
vn -6.103516E-06 0 1
vn 0 1 0
vn 0 1 0
vn 0 1 0
vn 0 1 0
vn -6.103516E-06 0 1
vn -6.103516E-06 0 1
vn -6.103516E-06 0 1
vn -6.103516E-06 0 1
vn 0 1 0
vn 0 1 0
vn 0 1 0
vn 0 1 0
vn -6.103516E-06 0 1
vn -6.103516E-06 0 1
vn -6.103516E-06 0 1
vn -6.103516E-06 0 1
vn 0 1 0
vn 0 1 0
vn 0 1 0
vn 0 1 0
vn -6.103516E-06 0 1
vn -6.103516E-06 0 1
vn -6.103516E-06 0 1
vn -6.103516E-06 0 1
vn 0 1 0
vn 0 1 0
vn 0 1 0
vn 0 1 0
vn -6.103516E-06 0 1
vn -6.103516E-06 0 1
vn -6.103516E-06 0 1
vn -6.103516E-06 0 1
vn 0 1 0
vn 0 1 0
vn 0 1 0
vn 0 1 0
vn -5.340576E-06 0 1
vn -5.340576E-06 0 1
vn -5.340576E-06 0 1
vn -5.340576E-06 0 1
vn 0 1 0
vn 0 1 0
vn 0 1 0
vn 0 1 0
vn -5.340576E-06 0 1
vn -5.340576E-06 0 1
vn -5.340576E-06 0 1
vn -5.340576E-06 0 1
vn 0 1 0
vn 0 1 0
vn 0 1 0
vn 0 1 0
vn -5.340577E-06 0 1
vn -5.340577E-06 0 1
vn -5.340577E-06 0 1
vn -5.340577E-06 0 1
vn 0 1 0
vn 0 1 0
vn 0 1 0
vn 0 1 0
vn -5.340576E-06 0 1
vn -5.340576E-06 0 1
vn -5.340576E-06 0 1
vn -5.340576E-06 0 1
vn 0 1 0
vn 0 1 0
vn 0 1 0
vn 0 1 0
vn -6.103516E-06 0 1
vn -6.103516E-06 0 1
vn -6.103516E-06 0 1
vn -6.103516E-06 0 1
vn 0 1 0
vn 0 1 0
vn 0 1 0
vn 0 1 0
vn -6.103516E-06 0 1
vn -6.103516E-06 0 1
vn -6.103516E-06 0 1
vn -6.103516E-06 0 1
vn 0 1 0
vn 0 1 0
vn 0 1 0
vn 0 1 0
vn -6.103516E-06 0 1
vn -6.103516E-06 0 1
vn -6.103516E-06 0 1
vn -6.103516E-06 0 1
vn 0 1 0
vn 0 1 0
vn 0 0.9999999 0
vn 0 1 0
vn -6.103514E-06 0 1
vn -6.103514E-06 0 1
vn -6.103514E-06 0 1
vn -6.103514E-06 0 1
vn 0 1 0
vn 0 0.9999999 0
vn 0 1 0
vn 0 1 0
vn -6.103516E-06 0 1
vn -6.103516E-06 0 1
vn -6.103516E-06 0 1
vn -6.103516E-06 0 1
vn 0 1 0
vn 0 1 0
vn 0 1 0
vn 0 1 0
vn -6.103516E-06 0 1
vn -6.103516E-06 0 1
vn -6.103516E-06 0 1
vn -6.103516E-06 0 1
vn 0 1 0
vn 0 1 0
vn 0 1 0
vn 0 1 0
vn -5.340577E-06 0 1
vn -5.340577E-06 0 1
vn -5.340577E-06 0 1
vn -5.340577E-06 0 1
vn 0 1 0
vn 0 1 0
vn 0 1 0
vn 0 1 0
vn -5.340576E-06 0 1
vn -5.340576E-06 0 1
vn -5.340576E-06 0 1
vn -5.340576E-06 0 1
vn 0 1 0
vn 0 1 0
vn 0 0.9999999 0
vn 0 1 0
vn -5.340575E-06 0 1
vn -5.340575E-06 0 1
vn -5.340575E-06 0 1
vn -5.340575E-06 0 1
vn 0 1 0
vn 0 0.9999999 0
vn 0 1 0
vn 0 1 0
vn -5.340576E-06 0 1
vn -5.340576E-06 0 1
vn -5.340576E-06 0 1
vn -5.340576E-06 0 1
vn 0 1 0
vn 0 1 0
vn 0 1 0
vn 0 1 0
vn -6.103516E-06 0 1
vn -6.103516E-06 0 1
vn -6.103516E-06 0 1
vn -6.103516E-06 0 1
vn 0 1 0
vn 0 1 0
vn 0 1 0
vn 0 1 0
vn -6.103516E-06 0 1
vn -6.103516E-06 0 1
vn -6.103516E-06 0 1
vn -6.103516E-06 0 1
vn 0 1 0
vn 0 1 0
vn 0 1 0
vn 0 1 0
vn -6.103516E-06 0 1
vn -6.103516E-06 0 1
vn -6.103516E-06 0 1
vn -6.103516E-06 0 1
vn 0 1 0
vn 0 1 0
vn 0 0.9999999 0
vn 0 1 0
vn -6.103515E-06 0 1
vn -6.103515E-06 0 1
vn -6.103515E-06 0 1
vn -6.103515E-06 0 1
vn 0 1 0
vn 0 0.9999999 0
vn 0 1 0
vn 0 1 0
vn -6.103516E-06 0 1
vn -6.103516E-06 0 1
vn -6.103516E-06 0 1
vn -6.103516E-06 0 1
vn 0 1 0
vn 0 1 0
vn 0 1 0
vn 0 1 0
vn -6.103516E-06 0 1
vn -6.103516E-06 0 1
vn -6.103516E-06 0 1
vn -6.103516E-06 0 1
vn 0 1 0
vn 0 1 0
vn 0 1 0
vn 0 1 0
vn -1 0 -7.390983E-06
vn -1 0 -7.390983E-06
vn -1 0 -7.390983E-06
vn -1 0 -7.390983E-06
vn -1 0 -3.695491E-06
vn -1 0 -3.695492E-06
vn -1 0 -3.695492E-06
vn -1 0 -3.695491E-06
vn -1 0 -3.695492E-06
vn -1 0 -3.695492E-06
vn -1 0 -3.695492E-06
vn -1 0 -7.390983E-06
vn -1 0 -7.390983E-06
vn -1 0 -7.390983E-06
vn -1 0 -7.390983E-06
vn -1 0 -7.390983E-06
vn -1 0 -7.390983E-06
vn -1 0 -7.390983E-06
vn -1 0 -3.695492E-06
vn -1 0 -3.695492E-06
vn -1 0 -3.695491E-06
vn -1 0 -3.695492E-06
vn -1 0 -3.695492E-06
vn -1 0 -3.695492E-06
vn -1 0 -3.695492E-06
vn -1 0 -7.390983E-06
vn -1 0 -7.390983E-06
vn -1 0 -7.390983E-06
vn -1 0 -7.390983E-06
vn -1 0 -7.390983E-06
vn -1 0 -7.390983E-06
vn -1 0 -7.390983E-06
vn -1 0 -7.390983E-06
vn -1 0 -7.390983E-06
vn -1 0 -7.390983E-06
vn -1 0 -7.390983E-06
vn -1 0 -7.390983E-06
vn -1 0 -7.390983E-06
vn -1 0 -7.390983E-06
vn -1 0 -3.695492E-06
vn -1 0 -3.695492E-06
vn -1 0 -3.695491E-06
vn -1 0 -3.695492E-06
vn -1 0 -3.695492E-06
vn -1 0 -3.695492E-06
vn -1 0 -3.695492E-06
vn -1 0 -7.390983E-06
vn -1 0 -7.390983E-06
vn -1 0 -7.390983E-06
vn -1 0 -7.390983E-06
vn -1 0 -7.390983E-06
vn -1 0 -7.390983E-06
vn -1 0 -7.390983E-06
vn -1 0 -3.695491E-06
vn -1 0 -3.695491E-06
vn -1 0 -3.695492E-06
vn -1 0 -3.695491E-06
vn -1 0 -3.695492E-06
vn -1 0 -3.695492E-06
vn -1 0 -3.695492E-06
vn -1 0 -7.390984E-06
vn -1 0 -7.390983E-06
vn -1 0 -7.390983E-06
vn -1 0 -7.390984E-06
vn -1 0 -7.390983E-06
vn -1 0 -7.390983E-06
vn -1 0 -7.390983E-06
vn -1 0 -7.390982E-06
vn -1 0 -7.390983E-06
vn -1 0 -7.390983E-06
vn -1 0 -7.390982E-06
vn -1 0 -7.390983E-06
vn -1 0 -7.390983E-06
vn -1 0 -7.390983E-06
vn -1 0 -3.695491E-06
vn -0.9999999 0 -3.695491E-06
vn -1 0 -3.695491E-06
vn -1 0 -3.695491E-06
vn -1 0 -3.695492E-06
vn -1 0 -3.695492E-06
vn -1 0 -3.695492E-06
vn -1 0 -7.390984E-06
vn -1 0 -7.390983E-06
vn -0.9999999 0 -7.390983E-06
vn -1 0 -7.390984E-06
vn -1 0 -7.390983E-06
vn -1 0 -7.390983E-06
vn -1 0 -7.390983E-06
vn -0.9999999 0 -3.695491E-06
vn -1 0 -3.695491E-06
vn -1 0 -3.695492E-06
vn -0.9999999 0 -3.695491E-06
vn -1 0 -3.695492E-06
vn -1 0 -3.695492E-06
vn -1 0 -3.695492E-06
vn -1 0 -7.390874E-06
vn -1 0 -7.390874E-06
vn -1 0 -7.390874E-06
vn -1 0 -7.390874E-06
vn -1 0 -7.390874E-06
vn -1 0 -7.390874E-06
vn -1 0 -7.390874E-06
vn -1 0 -7.390983E-06
vn -1 0 -7.390983E-06
vn -1 0 -7.390983E-06
vn -1 0 -7.390983E-06
vn -1 0 -7.390983E-06
vn -1 0 -7.390983E-06
vn -1 0 -7.390983E-06
vn -1 0 -3.695492E-06
vn -1 0 -3.695492E-06
vn -1 0 -3.695492E-06
vn -1 0 -3.695492E-06
vn -1 0 -3.695492E-06
vn -1 0 -3.695492E-06
vn -1 0 -3.695492E-06
vn -0.9999999 0 -3.695492E-06
vn -0.9999999 0 -3.695491E-06
vn -1 0 -3.695492E-06
vn -0.9999999 0 -3.695492E-06
vn -1 0 -3.695492E-06
vn -1 0 -3.695492E-06
vn -1 0 -3.695492E-06
vn -0.9999999 0 -7.390982E-06
vn -1 0 -7.390983E-06
vn -0.9999999 0 -7.390983E-06
vn -0.9999999 0 -7.390982E-06
vn -1 0 -7.390983E-06
vn -1 0 -7.390983E-06
vn -1 0 -7.390983E-06
vn -1 0 -7.390983E-06
vn -1 0 -7.390984E-06
vn -1 0 -7.390983E-06
vn -1 0 -7.390983E-06
vn -1 0 -7.390983E-06
vn -1 0 -7.390983E-06
vn -1 0 -7.390983E-06
vn -1 0 -7.390984E-06
vn -1 0 -7.390983E-06
vn -1 0 -7.390984E-06
vn -1 0 -7.390984E-06
vn -1 0 -7.390983E-06
vn -1 0 -7.390983E-06
vn -1 0 -7.390983E-06
vn -1 0 -3.695491E-06
vn -1 0 -3.695491E-06
vn -1 0 -3.695492E-06
vn -1 0 -3.695491E-06
vn -1 0 -3.695492E-06
vn -1 0 -3.695492E-06
vn -1 0 -3.695492E-06
vn -1 0 -3.695491E-06
vn -1 0 -3.695491E-06
vn -1 0 -3.695491E-06
vn -1 0 -3.695491E-06
vn -1 0 -3.695492E-06
vn -1 0 -3.695492E-06
vn -1 0 -3.695492E-06
vn -1 0 -7.390983E-06
vn -0.9999999 0 -7.390983E-06
vn -1 0 -7.390983E-06
vn -1 0 -7.390983E-06
vn -1 0 -7.390983E-06
vn -1 0 -7.390983E-06
vn -1 0 -7.390983E-06
vn -1 0 -7.390874E-06
vn -0.9999999 0 -7.390874E-06
vn -1 0 -7.390873E-06
vn -1 0 -7.390874E-06
vn -1 0 -7.390874E-06
vn -1 0 -7.390874E-06
vn -1 0 -7.390874E-06
vn -1 0 -7.390983E-06
vn -1 0 -7.390983E-06
vn -1 0 -7.390983E-06
vn -1 0 -7.390983E-06
vn -1 0 -7.390983E-06
vn -1 0 -7.390983E-06
vn -1 0 -7.390983E-06
vn -1 0 -3.695492E-06
vn -1 0 -3.695492E-06
vn -1 0 -3.695492E-06
vn -1 0 -3.695492E-06
vn -1 0 -3.695492E-06
vn -1 0 -3.695492E-06
vn -1 0 -3.695492E-06
vn -1 0 -3.695491E-06
vn -1 0 -3.695491E-06
vn -1 0 -3.695492E-06
vn -1 0 -3.695491E-06
vn -1 0 -3.695492E-06
vn -1 0 -3.695492E-06
vn -1 0 -3.695492E-06
vn -1 0 -7.390983E-06
vn -1 0 -7.390983E-06
vn -1 0 -7.390983E-06
vn -1 0 -7.390983E-06
vn -1 0 -7.390983E-06
vn -1 0 -7.390983E-06
vn -1 0 -7.390983E-06
vn -1 0 -7.390983E-06
vn -1 0 -7.390983E-06
vn -1 0 -7.390983E-06
vn -1 0 -7.390983E-06
vn -1 0 -7.390983E-06
vn -1 0 -7.390983E-06
vn -1 0 -7.390983E-06
vn -1 0 -7.390983E-06
vn -1 0 -7.390983E-06
vn -1 0 -7.390983E-06
vn -1 0 -7.390983E-06
vn -1 0 -7.390983E-06
vn -1 0 -7.390983E-06
vn -1 0 -7.390983E-06
vn 1 0 7.390983E-06
vn 1 0 7.390983E-06
vn 1 0 7.390983E-06
vn 1 0 7.390983E-06
vn 1 0 3.695492E-06
vn 1 0 3.695491E-06
vn 1 0 3.695491E-06
vn 1 0 3.695492E-06
vn 1 0 3.695492E-06
vn 1 0 3.695492E-06
vn 1 0 3.695492E-06
vn 1 0 7.390983E-06
vn 1 0 7.390983E-06
vn 1 0 7.390983E-06
vn 1 0 7.390983E-06
vn 1 0 7.390983E-06
vn 1 0 7.390983E-06
vn 1 0 7.390983E-06
vn 1 0 3.695491E-06
vn 1 0 3.695492E-06
vn 1 0 3.695492E-06
vn 1 0 3.695492E-06
vn 1 0 3.695492E-06
vn 1 0 3.695492E-06
vn 1 0 3.695492E-06
vn 1 0 7.390983E-06
vn 1 0 7.390983E-06
vn 1 0 7.390983E-06
vn 1 0 7.390983E-06
vn 1 0 7.390983E-06
vn 1 0 7.390983E-06
vn 1 0 7.390983E-06
vn 1 0 7.390983E-06
vn 1 0 7.390983E-06
vn 1 0 7.390983E-06
vn 1 0 7.390983E-06
vn 1 0 7.390983E-06
vn 1 0 7.390983E-06
vn 1 0 7.390983E-06
vn 1 0 3.695491E-06
vn 1 0 3.695492E-06
vn 1 0 3.695492E-06
vn 1 0 3.695492E-06
vn 1 0 3.695492E-06
vn 1 0 3.695492E-06
vn 1 0 3.695492E-06
vn 1 0 7.390983E-06
vn 1 0 7.390983E-06
vn 1 0 7.390983E-06
vn 1 0 7.390983E-06
vn 1 0 7.390983E-06
vn 1 0 7.390983E-06
vn 1 0 7.390983E-06
vn 1 0 3.695492E-06
vn 1 0 3.695491E-06
vn 1 0 3.695491E-06
vn 1 0 3.695491E-06
vn 1 0 3.695492E-06
vn 1 0 3.695492E-06
vn 1 0 3.695492E-06
vn 1 0 7.390983E-06
vn 1 0 7.390984E-06
vn 1 0 7.390984E-06
vn 1 0 7.390983E-06
vn 1 0 7.390983E-06
vn 1 0 7.390983E-06
vn 1 0 7.390983E-06
vn 1 0 7.390874E-06
vn 1 0 7.390873E-06
vn 1 0 7.390873E-06
vn 1 0 7.390874E-06
vn 1 0 7.390874E-06
vn 1 0 7.390874E-06
vn 1 0 7.390874E-06
vn 1 0 3.695491E-06
vn 1 0 3.695491E-06
vn 1 0 3.695491E-06
vn 0.9999999 0 3.695491E-06
vn 1 0 3.695492E-06
vn 1 0 3.695492E-06
vn 1 0 3.695492E-06
vn 0.9999999 0 7.390983E-06
vn 1 0 7.390984E-06
vn 1 0 7.390984E-06
vn 1 0 7.390983E-06
vn 1 0 7.390983E-06
vn 1 0 7.390983E-06
vn 1 0 7.390983E-06
vn 1 0 3.695492E-06
vn 0.9999999 0 3.695491E-06
vn 0.9999999 0 3.695491E-06
vn 1 0 3.695491E-06
vn 1 0 3.695492E-06
vn 1 0 3.695492E-06
vn 1 0 3.695492E-06
vn 1 0 7.390983E-06
vn 0.9999999 0 7.390983E-06
vn 0.9999999 0 7.390983E-06
vn 1 0 7.390983E-06
vn 1 0 7.390983E-06
vn 1 0 7.390983E-06
vn 1 0 7.390983E-06
vn 1 0 7.390983E-06
vn 1 0 7.390983E-06
vn 1 0 7.390983E-06
vn 1 0 7.390983E-06
vn 1 0 7.390983E-06
vn 1 0 7.390983E-06
vn 1 0 7.390983E-06
vn 1 0 3.695492E-06
vn 1 0 3.695492E-06
vn 1 0 3.695492E-06
vn 1 0 3.695492E-06
vn 1 0 3.695492E-06
vn 1 0 3.695492E-06
vn 1 0 3.695492E-06
vn 1 0 7.390984E-06
vn 0.9999999 0 7.390983E-06
vn 0.9999999 0 7.390983E-06
vn 0.9999999 0 7.390983E-06
vn 1 0 7.390983E-06
vn 1 0 7.390983E-06
vn 1 0 7.390983E-06
vn 0.9999999 0 3.695491E-06
vn 0.9999999 0 3.695491E-06
vn 0.9999999 0 3.695491E-06
vn 1 0 3.695492E-06
vn 1 0 3.695492E-06
vn 1 0 3.695492E-06
vn 1 0 3.695492E-06
vn 1 0 7.390983E-06
vn 1 0 7.390983E-06
vn 1 0 7.390983E-06
vn 1 0 7.390984E-06
vn 1 0 7.390983E-06
vn 1 0 7.390983E-06
vn 1 0 7.390983E-06
vn 0.9999999 0 7.390874E-06
vn 1 0 7.390874E-06
vn 1 0 7.390874E-06
vn 1 0 7.390874E-06
vn 1 0 7.390874E-06
vn 1 0 7.390874E-06
vn 1 0 7.390874E-06
vn 1 0 3.695492E-06
vn 1 0 3.695491E-06
vn 1 0 3.695491E-06
vn 1 0 3.695491E-06
vn 1 0 3.695492E-06
vn 1 0 3.695492E-06
vn 1 0 3.695492E-06
vn 1 0 7.390983E-06
vn 1 0 7.390982E-06
vn 1 0 7.390982E-06
vn 1 0 7.390983E-06
vn 1 0 7.390983E-06
vn 1 0 7.390983E-06
vn 1 0 7.390983E-06
vn 1 0 3.695491E-06
vn 1 0 3.695492E-06
vn 1 0 3.695492E-06
vn 0.9999999 0 3.695491E-06
vn 1 0 3.695492E-06
vn 1 0 3.695492E-06
vn 1 0 3.695492E-06
vn 0.9999999 0 7.390983E-06
vn 1 0 7.390983E-06
vn 1 0 7.390983E-06
vn 1 0 7.390983E-06
vn 1 0 7.390983E-06
vn 1 0 7.390983E-06
vn 1 0 7.390983E-06
vn 1 0 7.390983E-06
vn 1 0 7.390983E-06
vn 1 0 7.390983E-06
vn 1 0 7.390983E-06
vn 1 0 7.390983E-06
vn 1 0 7.390983E-06
vn 1 0 7.390983E-06
vn 1 0 3.695492E-06
vn 1 0 3.695492E-06
vn 1 0 3.695492E-06
vn 1 0 3.695492E-06
vn 1 0 3.695492E-06
vn 1 0 3.695492E-06
vn 1 0 3.695492E-06
vn 1 0 7.390984E-06
vn 1 0 7.390983E-06
vn 1 0 7.390983E-06
vn 1 0 7.390983E-06
vn 1 0 7.390983E-06
vn 1 0 7.390983E-06
vn 1 0 7.390983E-06
vn 1 0 3.695491E-06
vn 1 0 3.695491E-06
vn 1 0 3.695491E-06
vn 1 0 3.695491E-06
vn 1 0 3.695492E-06
vn 1 0 3.695492E-06
vn 1 0 3.695492E-06
vn 1 0 7.390983E-06
vn 1 0 7.390983E-06
vn 1 0 7.390983E-06
vn 1 0 7.390983E-06
vn 1 0 7.390983E-06
vn 1 0 7.390983E-06
vn 1 0 7.390983E-06
vn 1 0 3.695492E-06
vn 1 0 3.695491E-06
vn 1 0 3.695491E-06
vn 1 0 3.695492E-06
vn 1 0 3.695492E-06
vn 1 0 3.695492E-06
vn 1 0 3.695492E-06
vn 6.103517E-06 0 -1
vn 6.103517E-06 0 -1
vn 6.103517E-06 0 -1
vn 6.103517E-06 0 -1
vn 0 0 1
vn 0 0 1
vn 0 0 1
vn 0 0 1
vn -1 0 0
vn -1 0 0
vn -1 0 0
vn -1 0 0
vn 0 0 -1
vn 0 0 -1
vn 0 0 -1
vn 0 0 -1
vn 1 0 0
vn 1 0 0
vn 1 0 0
vn 1 0 0
vn 0 1 0
vn 0 1 0
vn 0 1 0
vn 0 1 0
vn 0 -1 0
vn 0 -1 0
vn 0 -1 0
vn 0 -1 0

vt -8 -5
vt -9 -5
vt -8 1
vt -9 1
vt 13 -5
vt -3 -5
vt 13 1
vt -3 1
vt 9 -5
vt 8 -5
vt 9 1
vt 8 1
vt 3 -5
vt -13 -5
vt 3 1
vt -13 1
vt 8 13
vt 9 13
vt 8 -3
vt 9 -3
vt -8 -3
vt -9 -3
vt -8 13
vt -9 13
vt -8 -5
vt -9 -5
vt -8 1
vt -9 1
vt 13 -5
vt -3 -5
vt 13 1
vt -3 1
vt 9 -5
vt 8 -5
vt 9 1
vt 8 1
vt 3 -5
vt -13 -5
vt 3 1
vt -13 1
vt 8 13
vt 9 13
vt 8 -3
vt 9 -3
vt -8 -3
vt -9 -3
vt -8 13
vt -9 13
vt -4 -5
vt -9 -5
vt -4 -4
vt -9 -4
vt 13 -5
vt -3 -5
vt 13 -4
vt -3 -4
vt 9 -5
vt 4 -5
vt 9 -4
vt 4 -4
vt 3 -5
vt -13 -5
vt 3 -4
vt -13 -4
vt 4 13
vt 9 13
vt 4 -3
vt 9 -3
vt -4 -3
vt -9 -3
vt -4 13
vt -9 13
vt 0 0
vt -5 0
vt 0 0.1935484
vt -5 0.1935484
vt 0 0
vt -5 0
vt 0 0.2580645
vt -5 0.2580645
vt 0 0.1935484
vt -5 0.1935484
vt 0 0.3870968
vt -5 0.3870968
vt 0 0.2580645
vt -5 0.2580645
vt 0 0.516129
vt -5 0.516129
vt 0 0.3870968
vt -5 0.3870968
vt 0 0.5806451
vt -5 0.5806451
vt 0 0.516129
vt -5 0.516129
vt 0 0.7741935
vt -5 0.7741935
vt 0 0.5806451
vt -5 0.5806451
vt 0 0.7741935
vt -5 0.7741935
vt 0 0.7741935
vt -5 0.7741935
vt 0 1.032258
vt -5 1.032258
vt 0 0.7741935
vt -5 0.7741935
vt 0 0.9677419
vt -5 0.9677419
vt 0 1.032258
vt -5 1.032258
vt 0 1.290323
vt -5 1.290323
vt 0 0.9677419
vt -5 0.9677419
vt 0 1.16129
vt -5 1.16129
vt 0 1.290323
vt -5 1.290323
vt 0 1.548387
vt -5 1.548387
vt 0 1.16129
vt -5 1.16129
vt 0 1.354839
vt -5 1.354839
vt 0 1.548387
vt -5 1.548387
vt 0 1.806452
vt -5 1.806452
vt 0 1.354839
vt -5 1.354839
vt 0 1.548387
vt -5 1.548387
vt 0 1.806452
vt -5 1.806452
vt 0 2.064516
vt -5 2.064516
vt 0 1.548387
vt -5 1.548387
vt 0 1.741935
vt -5 1.741935
vt 0 2.064516
vt -5 2.064516
vt 0 2.322581
vt -5 2.322581
vt 0 1.741935
vt -5 1.741935
vt 0 1.935484
vt -5 1.935484
vt 0 2.322581
vt -5 2.322581
vt 0 2.580645
vt -5 2.580645
vt 0 1.935484
vt -5 1.935484
vt 0 2.129032
vt -5 2.129032
vt 0 2.580645
vt -5 2.580645
vt 0 2.83871
vt -5 2.83871
vt 0 2.129032
vt -5 2.129032
vt 0 2.322581
vt -5 2.322581
vt 0 2.83871
vt -5 2.83871
vt 0 3.096774
vt -5 3.096774
vt 0 2.322581
vt -5 2.322581
vt 0 2.516129
vt -5 2.516129
vt 0 3.096774
vt -5 3.096774
vt 0 3.354839
vt -5 3.354839
vt 0 2.516129
vt -5 2.516129
vt 0 2.709677
vt -5 2.709677
vt 0 3.354839
vt -5 3.354839
vt 0 3.612903
vt -5 3.612903
vt 0 2.709677
vt -5 2.709677
vt 0 2.903226
vt -5 2.903226
vt 0 3.612903
vt -5 3.612903
vt 0 3.870968
vt -5 3.870968
vt 0 2.903226
vt -5 2.903226
vt 0 3.096774
vt -5 3.096774
vt 0 3.870968
vt -5 3.870968
vt 0 4.129032
vt -5 4.129032
vt 0 3.096774
vt -5 3.096774
vt 0 3.290323
vt -5 3.290323
vt 0 4.129032
vt -5 4.129032
vt 0 4.387097
vt -5 4.387097
vt 0 3.290323
vt -5 3.290323
vt 0 3.483871
vt -5 3.483871
vt 0 4.387097
vt -5 4.387097
vt 0 4.645161
vt -5 4.645161
vt 0 3.483871
vt -5 3.483871
vt 0 3.677419
vt -5 3.677419
vt 0 4.645161
vt -5 4.645161
vt 0 4.903226
vt -5 4.903226
vt 0 3.677419
vt -5 3.677419
vt 0 3.870968
vt -5 3.870968
vt 0 4.903226
vt -5 4.903226
vt 0 5.16129
vt -5 5.16129
vt 0 3.870968
vt -5 3.870968
vt 0 4.064516
vt -5 4.064516
vt 0 5.16129
vt -5 5.16129
vt 0 5.419355
vt -5 5.419355
vt 0 4.064516
vt -5 4.064516
vt 0 4.258064
vt -5 4.258064
vt 0 5.419355
vt -5 5.419355
vt 0 5.677419
vt -5 5.677419
vt 0 4.258064
vt -5 4.258064
vt 0 4.451613
vt -5 4.451613
vt 0 5.677419
vt -5 5.677419
vt 0 5.935484
vt -5 5.935484
vt 0 4.451613
vt -5 4.451613
vt 0 4.645161
vt -5 4.645161
vt 0 5.935484
vt -5 5.935484
vt 0 6.193548
vt -5 6.193548
vt 0 4.645161
vt -5 4.645161
vt 0 4.83871
vt -5 4.83871
vt 0 6.193548
vt -5 6.193548
vt 0 6.451613
vt -5 6.451613
vt 0 4.83871
vt -5 4.83871
vt 0 5.032258
vt -5 5.032258
vt 0 6.451613
vt -5 6.451613
vt 0 6.709677
vt -5 6.709677
vt 0 5.032258
vt -5 5.032258
vt 0 5.225806
vt -5 5.225806
vt 0 6.709677
vt -5 6.709677
vt 0 6.967742
vt -5 6.967742
vt 0 5.225806
vt -5 5.225806
vt 0 5.419354
vt -5 5.419354
vt 0 6.967742
vt -5 6.967742
vt 0 7.225806
vt -5 7.225806
vt 0 5.419354
vt -5 5.419354
vt 0 5.612903
vt -5 5.612903
vt 0 7.225806
vt -5 7.225806
vt 0 7.483871
vt -5 7.483871
vt 0 5.612903
vt -5 5.612903
vt 0 5.806451
vt -5 5.806451
vt 0 7.483871
vt -5 7.483871
vt 0 7.741935
vt -5 7.741935
vt 0 5.806451
vt -5 5.806451
vt 0 6
vt -5 6
vt 0 7.741935
vt -5 7.741935
vt 0 8
vt -5 8
vt 0 0
vt 0.2580645 0
vt 0 0.1935484
vt 0.2580645 0.1935484
vt 0.2580645 0
vt 0.516129 0
vt 0.2580645 0.1935484
vt 0.516129 0.3870968
vt 0.2580645 0.1935484
vt 0.2580645 0.3870968
vt 0.516129 0.3870968
vt 0.516129 0
vt 0.7741935 0
vt 0.516129 0.3870968
vt 0.7741935 0.5806451
vt 0.516129 0.3870968
vt 0.516129 0.5806451
vt 0.7741935 0.5806451
vt 0.7741935 0
vt 1.032258 0
vt 0.7741935 0.5806451
vt 1.032258 0.7741935
vt 0.7741935 0.5806451
vt 0.7741935 0.7741935
vt 1.032258 0.7741935
vt 1.032258 0
vt 1.290323 0
vt 1.032258 0.7741935
vt 1.290323 0.9677419
vt 1.032258 0.7741935
vt 1.032258 0.9677419
vt 1.290323 0.9677419
vt 1.290323 0
vt 1.548387 0
vt 1.290323 0.9677419
vt 1.548387 1.16129
vt 1.290323 0.9677419
vt 1.290323 1.16129
vt 1.548387 1.16129
vt 1.548387 0
vt 1.806452 0
vt 1.548387 1.16129
vt 1.806452 1.354839
vt 1.548387 1.16129
vt 1.548387 1.354839
vt 1.806452 1.354839
vt 1.806452 0
vt 2.064516 0
vt 1.806452 1.354839
vt 2.064516 1.548387
vt 1.806452 1.354839
vt 1.806452 1.548387
vt 2.064516 1.548387
vt 2.064516 0
vt 2.322581 0
vt 2.064516 1.548387
vt 2.322581 1.741935
vt 2.064516 1.548387
vt 2.064516 1.741935
vt 2.322581 1.741935
vt 2.322581 0
vt 2.580645 0
vt 2.322581 1.741935
vt 2.580645 1.935484
vt 2.322581 1.741935
vt 2.322581 1.935484
vt 2.580645 1.935484
vt 2.580645 0
vt 2.83871 0
vt 2.580645 1.935484
vt 2.83871 2.129032
vt 2.580645 1.935484
vt 2.580645 2.129032
vt 2.83871 2.129032
vt 2.83871 0
vt 3.096774 0
vt 2.83871 2.129032
vt 3.096774 2.322581
vt 2.83871 2.129032
vt 2.83871 2.322581
vt 3.096774 2.322581
vt 3.096774 0
vt 3.354839 0
vt 3.096774 2.322581
vt 3.354839 2.516129
vt 3.096774 2.322581
vt 3.096774 2.516129
vt 3.354839 2.516129
vt 3.354839 0
vt 3.612903 0
vt 3.354839 2.516129
vt 3.612903 2.709677
vt 3.354839 2.516129
vt 3.354839 2.709677
vt 3.612903 2.709677
vt 3.612903 0
vt 3.870968 0
vt 3.612903 2.709677
vt 3.870968 2.903226
vt 3.612903 2.709677
vt 3.612903 2.903226
vt 3.870968 2.903226
vt 3.870968 0
vt 4.129032 0
vt 3.870968 2.903226
vt 4.129032 3.096774
vt 3.870968 2.903226
vt 3.870968 3.096774
vt 4.129032 3.096774
vt 4.129032 0
vt 4.387097 0
vt 4.129032 3.096774
vt 4.387097 3.290323
vt 4.129032 3.096774
vt 4.129032 3.290323
vt 4.387097 3.290323
vt 4.387097 0
vt 4.645161 0
vt 4.387097 3.290323
vt 4.645161 3.483871
vt 4.387097 3.290323
vt 4.387097 3.483871
vt 4.645161 3.483871
vt 4.645161 0
vt 4.903226 0
vt 4.645161 3.483871
vt 4.903226 3.677419
vt 4.645161 3.483871
vt 4.645161 3.677419
vt 4.903226 3.677419
vt 4.903226 0
vt 5.16129 0
vt 4.903226 3.677419
vt 5.16129 3.870968
vt 4.903226 3.677419
vt 4.903226 3.870968
vt 5.16129 3.870968
vt 5.16129 0
vt 5.419355 0
vt 5.16129 3.870968
vt 5.419355 4.064516
vt 5.16129 3.870968
vt 5.16129 4.064516
vt 5.419355 4.064516
vt 5.419355 0
vt 5.677419 0
vt 5.419355 4.064516
vt 5.677419 4.258065
vt 5.419355 4.064516
vt 5.419355 4.258065
vt 5.677419 4.258065
vt 5.677419 0
vt 5.935484 0
vt 5.677419 4.258065
vt 5.935484 4.451613
vt 5.677419 4.258065
vt 5.677419 4.451613
vt 5.935484 4.451613
vt 5.935484 0
vt 6.193548 0
vt 5.935484 4.451613
vt 6.193548 4.645161
vt 5.935484 4.451613
vt 5.935484 4.645161
vt 6.193548 4.645161
vt 6.193548 0
vt 6.451613 0
vt 6.193548 4.645161
vt 6.451613 4.83871
vt 6.193548 4.645161
vt 6.193548 4.83871
vt 6.451613 4.83871
vt 6.451613 0
vt 6.709677 0
vt 6.451613 4.83871
vt 6.709677 5.032258
vt 6.451613 4.83871
vt 6.451613 5.032258
vt 6.709677 5.032258
vt 6.709677 0
vt 6.967742 0
vt 6.709677 5.032258
vt 6.967742 5.225806
vt 6.709677 5.032258
vt 6.709677 5.225806
vt 6.967742 5.225806
vt 6.967742 0
vt 7.225806 0
vt 6.967742 5.225806
vt 7.225806 5.419355
vt 6.967742 5.225806
vt 6.967742 5.419355
vt 7.225806 5.419355
vt 7.225806 0
vt 7.483871 0
vt 7.225806 5.419355
vt 7.483871 5.612903
vt 7.225806 5.419355
vt 7.225806 5.612903
vt 7.483871 5.612903
vt 7.483871 0
vt 7.741935 0
vt 7.483871 5.612903
vt 7.741935 5.806452
vt 7.483871 5.612903
vt 7.483871 5.806452
vt 7.741935 5.806452
vt 7.741935 0
vt 8 0
vt 7.741935 5.806452
vt 8 6
vt 7.741935 5.806452
vt 7.741935 6
vt 8 6
vt 0 0
vt 0.2580645 0
vt 0 0.1935484
vt 0.2580645 0.1935484
vt 0.2580645 0
vt 0.516129 0
vt 0.2580645 0.1935484
vt 0.516129 0.3870968
vt 0.2580645 0.1935484
vt 0.2580645 0.3870968
vt 0.516129 0.3870968
vt 0.516129 0
vt 0.7741935 0
vt 0.516129 0.3870968
vt 0.7741935 0.5806451
vt 0.516129 0.3870968
vt 0.516129 0.5806451
vt 0.7741935 0.5806451
vt 0.7741935 0
vt 1.032258 0
vt 0.7741935 0.5806451
vt 1.032258 0.7741935
vt 0.7741935 0.5806451
vt 0.7741935 0.7741935
vt 1.032258 0.7741935
vt 1.032258 0
vt 1.290323 0
vt 1.032258 0.7741935
vt 1.290323 0.9677419
vt 1.032258 0.7741935
vt 1.032258 0.9677419
vt 1.290323 0.9677419
vt 1.290323 0
vt 1.548387 0
vt 1.290323 0.9677419
vt 1.548387 1.16129
vt 1.290323 0.9677419
vt 1.290323 1.16129
vt 1.548387 1.16129
vt 1.548387 0
vt 1.806452 0
vt 1.548387 1.16129
vt 1.806452 1.354839
vt 1.548387 1.16129
vt 1.548387 1.354839
vt 1.806452 1.354839
vt 1.806452 0
vt 2.064516 0
vt 1.806452 1.354839
vt 2.064516 1.548387
vt 1.806452 1.354839
vt 1.806452 1.548387
vt 2.064516 1.548387
vt 2.064516 0
vt 2.322581 0
vt 2.064516 1.548387
vt 2.322581 1.741935
vt 2.064516 1.548387
vt 2.064516 1.741935
vt 2.322581 1.741935
vt 2.322581 0
vt 2.580645 0
vt 2.322581 1.741935
vt 2.580645 1.935484
vt 2.322581 1.741935
vt 2.322581 1.935484
vt 2.580645 1.935484
vt 2.580645 0
vt 2.83871 0
vt 2.580645 1.935484
vt 2.83871 2.129032
vt 2.580645 1.935484
vt 2.580645 2.129032
vt 2.83871 2.129032
vt 2.83871 0
vt 3.096774 0
vt 2.83871 2.129032
vt 3.096774 2.322581
vt 2.83871 2.129032
vt 2.83871 2.322581
vt 3.096774 2.322581
vt 3.096774 0
vt 3.354839 0
vt 3.096774 2.322581
vt 3.354839 2.516129
vt 3.096774 2.322581
vt 3.096774 2.516129
vt 3.354839 2.516129
vt 3.354839 0
vt 3.612903 0
vt 3.354839 2.516129
vt 3.612903 2.709677
vt 3.354839 2.516129
vt 3.354839 2.709677
vt 3.612903 2.709677
vt 3.612903 0
vt 3.870968 0
vt 3.612903 2.709677
vt 3.870968 2.903226
vt 3.612903 2.709677
vt 3.612903 2.903226
vt 3.870968 2.903226
vt 3.870968 0
vt 4.129032 0
vt 3.870968 2.903226
vt 4.129032 3.096774
vt 3.870968 2.903226
vt 3.870968 3.096774
vt 4.129032 3.096774
vt 4.129032 0
vt 4.387097 0
vt 4.129032 3.096774
vt 4.387097 3.290323
vt 4.129032 3.096774
vt 4.129032 3.290323
vt 4.387097 3.290323
vt 4.387097 0
vt 4.645161 0
vt 4.387097 3.290323
vt 4.645161 3.483871
vt 4.387097 3.290323
vt 4.387097 3.483871
vt 4.645161 3.483871
vt 4.645161 0
vt 4.903226 0
vt 4.645161 3.483871
vt 4.903226 3.677419
vt 4.645161 3.483871
vt 4.645161 3.677419
vt 4.903226 3.677419
vt 4.903226 0
vt 5.16129 0
vt 4.903226 3.677419
vt 5.16129 3.870968
vt 4.903226 3.677419
vt 4.903226 3.870968
vt 5.16129 3.870968
vt 5.16129 0
vt 5.419355 0
vt 5.16129 3.870968
vt 5.419355 4.064516
vt 5.16129 3.870968
vt 5.16129 4.064516
vt 5.419355 4.064516
vt 5.419355 0
vt 5.677419 0
vt 5.419355 4.064516
vt 5.677419 4.258065
vt 5.419355 4.064516
vt 5.419355 4.258065
vt 5.677419 4.258065
vt 5.677419 0
vt 5.935484 0
vt 5.677419 4.258065
vt 5.935484 4.451613
vt 5.677419 4.258065
vt 5.677419 4.451613
vt 5.935484 4.451613
vt 5.935484 0
vt 6.193548 0
vt 5.935484 4.451613
vt 6.193548 4.645161
vt 5.935484 4.451613
vt 5.935484 4.645161
vt 6.193548 4.645161
vt 6.193548 0
vt 6.451613 0
vt 6.193548 4.645161
vt 6.451613 4.83871
vt 6.193548 4.645161
vt 6.193548 4.83871
vt 6.451613 4.83871
vt 6.451613 0
vt 6.709677 0
vt 6.451613 4.83871
vt 6.709677 5.032258
vt 6.451613 4.83871
vt 6.451613 5.032258
vt 6.709677 5.032258
vt 6.709677 0
vt 6.967742 0
vt 6.709677 5.032258
vt 6.967742 5.225806
vt 6.709677 5.032258
vt 6.709677 5.225806
vt 6.967742 5.225806
vt 6.967742 0
vt 7.225806 0
vt 6.967742 5.225806
vt 7.225806 5.419355
vt 6.967742 5.225806
vt 6.967742 5.419355
vt 7.225806 5.419355
vt 7.225806 0
vt 7.483871 0
vt 7.225806 5.419355
vt 7.483871 5.612903
vt 7.225806 5.419355
vt 7.225806 5.612903
vt 7.483871 5.612903
vt 7.483871 0
vt 7.741935 0
vt 7.483871 5.612903
vt 7.741935 5.806452
vt 7.483871 5.612903
vt 7.483871 5.806452
vt 7.741935 5.806452
vt 7.741935 0
vt 8 0
vt 7.741935 5.806452
vt 8 6
vt 7.741935 5.806452
vt 7.741935 6
vt 8 6
vt 5 0
vt 0 0
vt 5 6
vt 0 6
vt -7 -4
vt -12 -4
vt -7 1
vt -12 1
vt 1 -4
vt -3 -4
vt 1 1
vt -3 1
vt 12 -4
vt 7 -4
vt 12 1
vt 7 1
vt 3 -4
vt -1 -4
vt 3 1
vt -1 1
vt 7 1
vt 12 1
vt 7 -3
vt 12 -3
vt -7 -3
vt -12 -3
vt -7 1
vt -12 1

g UnderFloor_0
usemtl M06_WallBlack
f 3/3/3 4/4/4 2/2/2 1/1/1
f 7/7/7 8/8/8 6/6/6 5/5/5
f 11/11/11 12/12/12 10/10/10 9/9/9
f 15/15/15 16/16/16 14/14/14 13/13/13
f 19/19/19 20/20/20 18/18/18 17/17/17
f 23/23/23 24/24/24 22/22/22 21/21/21
f 27/27/27 28/28/28 26/26/26 25/25/25
f 31/31/31 32/32/32 30/30/30 29/29/29
f 35/35/35 36/36/36 34/34/34 33/33/33
f 39/39/39 40/40/40 38/38/38 37/37/37
f 43/43/43 44/44/44 42/42/42 41/41/41
f 47/47/47 48/48/48 46/46/46 45/45/45

g UnderFloor_1
usemtl M05_FloorBlack
f 51/51/51 52/52/52 50/50/50 49/49/49
f 55/55/55 56/56/56 54/54/54 53/53/53
f 59/59/59 60/60/60 58/58/58 57/57/57
f 63/63/63 64/64/64 62/62/62 61/61/61
f 67/67/67 68/68/68 66/66/66 65/65/65
f 71/71/71 72/72/72 70/70/70 69/69/69
f 75/75/75 76/76/76 74/74/74 73/73/73
f 79/79/79 80/80/80 78/78/78 77/77/77
f 83/83/83 84/84/84 82/82/82 81/81/81
f 87/87/87 88/88/88 86/86/86 85/85/85
f 91/91/91 92/92/92 90/90/90 89/89/89
f 95/95/95 96/96/96 94/94/94 93/93/93
f 99/99/99 100/100/100 98/98/98 97/97/97
f 103/103/103 104/104/104 102/102/102 101/101/101
f 107/107/107 108/108/108 106/106/106 105/105/105
f 111/111/111 112/112/112 110/110/110 109/109/109
f 115/115/115 116/116/116 114/114/114 113/113/113
f 119/119/119 120/120/120 118/118/118 117/117/117
f 123/123/123 124/124/124 122/122/122 121/121/121
f 127/127/127 128/128/128 126/126/126 125/125/125
f 131/131/131 132/132/132 130/130/130 129/129/129
f 135/135/135 136/136/136 134/134/134 133/133/133
f 139/139/139 140/140/140 138/138/138 137/137/137
f 143/143/143 144/144/144 142/142/142 141/141/141
f 147/147/147 148/148/148 146/146/146 145/145/145
f 151/151/151 152/152/152 150/150/150 149/149/149
f 155/155/155 156/156/156 154/154/154 153/153/153
f 159/159/159 160/160/160 158/158/158 157/157/157
f 163/163/163 164/164/164 162/162/162 161/161/161
f 167/167/167 168/168/168 166/166/166 165/165/165
f 171/171/171 172/172/172 170/170/170 169/169/169
f 175/175/175 176/176/176 174/174/174 173/173/173
f 179/179/179 180/180/180 178/178/178 177/177/177
f 183/183/183 184/184/184 182/182/182 181/181/181
f 187/187/187 188/188/188 186/186/186 185/185/185
f 191/191/191 192/192/192 190/190/190 189/189/189
f 195/195/195 196/196/196 194/194/194 193/193/193
f 199/199/199 200/200/200 198/198/198 197/197/197
f 203/203/203 204/204/204 202/202/202 201/201/201
f 207/207/207 208/208/208 206/206/206 205/205/205
f 211/211/211 212/212/212 210/210/210 209/209/209
f 215/215/215 216/216/216 214/214/214 213/213/213
f 219/219/219 220/220/220 218/218/218 217/217/217
f 223/223/223 224/224/224 222/222/222 221/221/221
f 227/227/227 228/228/228 226/226/226 225/225/225
f 231/231/231 232/232/232 230/230/230 229/229/229
f 235/235/235 236/236/236 234/234/234 233/233/233
f 239/239/239 240/240/240 238/238/238 237/237/237
f 243/243/243 244/244/244 242/242/242 241/241/241
f 247/247/247 248/248/248 246/246/246 245/245/245
f 251/251/251 252/252/252 250/250/250 249/249/249
f 255/255/255 256/256/256 254/254/254 253/253/253
f 259/259/259 260/260/260 258/258/258 257/257/257
f 263/263/263 264/264/264 262/262/262 261/261/261
f 267/267/267 268/268/268 266/266/266 265/265/265
f 271/271/271 272/272/272 270/270/270 269/269/269
f 275/275/275 276/276/276 274/274/274 273/273/273
f 279/279/279 280/280/280 278/278/278 277/277/277
f 283/283/283 284/284/284 282/282/282 281/281/281
f 287/287/287 288/288/288 286/286/286 285/285/285
f 291/291/291 292/292/292 290/290/290 289/289/289
f 295/295/295 296/296/296 294/294/294 293/293/293
f 299/299/299 300/300/300 298/298/298 297/297/297
f 303/303/303 304/304/304 302/302/302 301/301/301
f 307/307/307 308/308/308 306/306/306 305/305/305
f 311/311/311 312/312/312 310/310/310 309/309/309
f 315/315/315 316/316/316 314/314/314 313/313/313
f 319/319/319 320/320/320 318/318/318 317/317/317
f 323/323/323 324/324/324 322/322/322 321/321/321
f 327/327/327 328/328/328 326/326/326 325/325/325
f 334/334/334 335/335/335 333/333/333 332/332/332
f 341/341/341 342/342/342 340/340/340 339/339/339
f 348/348/348 349/349/349 347/347/347 346/346/346
f 355/355/355 356/356/356 354/354/354 353/353/353
f 362/362/362 363/363/363 361/361/361 360/360/360
f 369/369/369 370/370/370 368/368/368 367/367/367
f 376/376/376 377/377/377 375/375/375 374/374/374
f 383/383/383 384/384/384 382/382/382 381/381/381
f 390/390/390 391/391/391 389/389/389 388/388/388
f 397/397/397 398/398/398 396/396/396 395/395/395
f 404/404/404 405/405/405 403/403/403 402/402/402
f 411/411/411 412/412/412 410/410/410 409/409/409
f 418/418/418 419/419/419 417/417/417 416/416/416
f 425/425/425 426/426/426 424/424/424 423/423/423
f 432/432/432 433/433/433 431/431/431 430/430/430
f 439/439/439 440/440/440 438/438/438 437/437/437
f 446/446/446 447/447/447 445/445/445 444/444/444
f 453/453/453 454/454/454 452/452/452 451/451/451
f 460/460/460 461/461/461 459/459/459 458/458/458
f 467/467/467 468/468/468 466/466/466 465/465/465
f 474/474/474 475/475/475 473/473/473 472/472/472
f 481/481/481 482/482/482 480/480/480 479/479/479
f 488/488/488 489/489/489 487/487/487 486/486/486
f 495/495/495 496/496/496 494/494/494 493/493/493
f 502/502/502 503/503/503 501/501/501 500/500/500
f 509/509/509 510/510/510 508/508/508 507/507/507
f 516/516/516 517/517/517 515/515/515 514/514/514
f 523/523/523 524/524/524 522/522/522 521/521/521
f 530/530/530 531/531/531 529/529/529 528/528/528
f 538/538/538 537/537/537 535/535/535 536/536/536
f 542/542/542 541/541/541 539/539/539 540/540/540
f 549/549/549 548/548/548 546/546/546 547/547/547
f 556/556/556 555/555/555 553/553/553 554/554/554
f 563/563/563 562/562/562 560/560/560 561/561/561
f 570/570/570 569/569/569 567/567/567 568/568/568
f 577/577/577 576/576/576 574/574/574 575/575/575
f 584/584/584 583/583/583 581/581/581 582/582/582
f 591/591/591 590/590/590 588/588/588 589/589/589
f 598/598/598 597/597/597 595/595/595 596/596/596
f 605/605/605 604/604/604 602/602/602 603/603/603
f 612/612/612 611/611/611 609/609/609 610/610/610
f 619/619/619 618/618/618 616/616/616 617/617/617
f 626/626/626 625/625/625 623/623/623 624/624/624
f 633/633/633 632/632/632 630/630/630 631/631/631
f 640/640/640 639/639/639 637/637/637 638/638/638
f 647/647/647 646/646/646 644/644/644 645/645/645
f 654/654/654 653/653/653 651/651/651 652/652/652
f 661/661/661 660/660/660 658/658/658 659/659/659
f 668/668/668 667/667/667 665/665/665 666/666/666
f 675/675/675 674/674/674 672/672/672 673/673/673
f 682/682/682 681/681/681 679/679/679 680/680/680
f 689/689/689 688/688/688 686/686/686 687/687/687
f 696/696/696 695/695/695 693/693/693 694/694/694
f 703/703/703 702/702/702 700/700/700 701/701/701
f 710/710/710 709/709/709 707/707/707 708/708/708
f 717/717/717 716/716/716 714/714/714 715/715/715
f 724/724/724 723/723/723 721/721/721 722/722/722
f 731/731/731 730/730/730 728/728/728 729/729/729
f 738/738/738 737/737/737 735/735/735 736/736/736
f 745/745/745 744/744/744 742/742/742 743/743/743
f 751/751/751 752/752/752 750/750/750 749/749/749
f 755/755/755 756/756/756 754/754/754 753/753/753
f 759/759/759 760/760/760 758/758/758 757/757/757
f 763/763/763 764/764/764 762/762/762 761/761/761
f 767/767/767 768/768/768 766/766/766 765/765/765
f 771/771/771 772/772/772 770/770/770 769/769/769
f 775/775/775 776/776/776 774/774/774 773/773/773

g UnderFloor_2
usemtl M05_FloorBlack
f 329/329/329 330/330/330 331/331/331
f 336/336/336 337/337/337 338/338/338
f 343/343/343 344/344/344 345/345/345
f 350/350/350 351/351/351 352/352/352
f 357/357/357 358/358/358 359/359/359
f 364/364/364 365/365/365 366/366/366
f 371/371/371 372/372/372 373/373/373
f 378/378/378 379/379/379 380/380/380
f 385/385/385 386/386/386 387/387/387
f 392/392/392 393/393/393 394/394/394
f 399/399/399 400/400/400 401/401/401
f 406/406/406 407/407/407 408/408/408
f 413/413/413 414/414/414 415/415/415
f 420/420/420 421/421/421 422/422/422
f 427/427/427 428/428/428 429/429/429
f 434/434/434 435/435/435 436/436/436
f 441/441/441 442/442/442 443/443/443
f 448/448/448 449/449/449 450/450/450
f 455/455/455 456/456/456 457/457/457
f 462/462/462 463/463/463 464/464/464
f 469/469/469 470/470/470 471/471/471
f 476/476/476 477/477/477 478/478/478
f 483/483/483 484/484/484 485/485/485
f 490/490/490 491/491/491 492/492/492
f 497/497/497 498/498/498 499/499/499
f 504/504/504 505/505/505 506/506/506
f 511/511/511 512/512/512 513/513/513
f 518/518/518 519/519/519 520/520/520
f 525/525/525 526/526/526 527/527/527
f 532/532/532 533/533/533 534/534/534
f 545/545/545 544/544/544 543/543/543
f 552/552/552 551/551/551 550/550/550
f 559/559/559 558/558/558 557/557/557
f 566/566/566 565/565/565 564/564/564
f 573/573/573 572/572/572 571/571/571
f 580/580/580 579/579/579 578/578/578
f 587/587/587 586/586/586 585/585/585
f 594/594/594 593/593/593 592/592/592
f 601/601/601 600/600/600 599/599/599
f 608/608/608 607/607/607 606/606/606
f 615/615/615 614/614/614 613/613/613
f 622/622/622 621/621/621 620/620/620
f 629/629/629 628/628/628 627/627/627
f 636/636/636 635/635/635 634/634/634
f 643/643/643 642/642/642 641/641/641
f 650/650/650 649/649/649 648/648/648
f 657/657/657 656/656/656 655/655/655
f 664/664/664 663/663/663 662/662/662
f 671/671/671 670/670/670 669/669/669
f 678/678/678 677/677/677 676/676/676
f 685/685/685 684/684/684 683/683/683
f 692/692/692 691/691/691 690/690/690
f 699/699/699 698/698/698 697/697/697
f 706/706/706 705/705/705 704/704/704
f 713/713/713 712/712/712 711/711/711
f 720/720/720 719/719/719 718/718/718
f 727/727/727 726/726/726 725/725/725
f 734/734/734 733/733/733 732/732/732
f 741/741/741 740/740/740 739/739/739
f 748/748/748 747/747/747 746/746/746

